Basic Examples • nadir
…
#> <bytecode: 0x1262ebb68>
#> <environment: 0x1262f9580>
#> 
#> $y_variable
#> [1] "Petal.Width"
#> 
#> $outcome_type
#> [1] "continuous"
#> 
#> $learner_weights
#>        lm        rf     earth      mean 
#> 0.5819815 0.4180185 0.0000000 0.0000000 
#> 
#> $holdout_predictions
#> # A tibble: 150 × 6
#>    .sl_fold    lm    rf earth  mean Petal.Width
#>       <int> <dbl> <dbl> <dbl> <dbl>       <dbl>
#>  1        1 0.282 0.232  1.93  1.23         0.2
#>  2        1 0.247 0.232  2.14  1.23         0.2
#>  3        1 0.230 0.261  1.81  1.23         0.2
#>  4        1 0.211 0.243  2.14  1.23         0.1
#>  5        1 0.167 0.283  2.38  1.23         0.4
#>  6        1 0.300 0.233  2.19  1.23         0.4
#>  7        1 0.318 0.348  2.25  1.23         0.5
#>  8        1 0.162 0.290  2.45  1.23         0.4
#>  9        1 0.265 0.272  2.40  1.23         0.2
#> 10        1 0.243 0.230  1.77  1.23         0.2
#> # ℹ 140 more rows
…
