Screeners • nadir
…
## <bytecode: 0x1341def28>
## <environment: 0x1341ef698>
## 
## $y_variable
## [1] "mpg"
## 
## $outcome_type
## [1] "continuous"
## 
## $learner_weights
##         lm      earth         rf 
## 0.08265103 0.00000000 0.91734897 
## 
## $holdout_predictions
## # A tibble: 32 × 5
##    .sl_fold    lm earth    rf   mpg
##       <int> <dbl> <dbl> <dbl> <dbl>
##  1        1 22.6   17.0  19.6  21.4
##  2        1 18.0   15.0  16.3  18.7
##  3        1 21.5   17.6  19.0  18.1
##  4        1 12.7   12.9  13.4  10.4
##  5        1 17.4   21.6  19.9  19.7
##  6        1  9.47  16.2  15.4  15  
##  7        2 21.9   18.6  20.5  21  
##  8        2 21.1   20.4  23.0  24.4
##  9        2 12.3   15.1  16.9  16.4
## 10        2 13.8   16.2  17.0  15.2
## # ℹ 22 more rows
## 
## attr(,"class")
## [1] "list"                    "nadir_sl_verbose_output"
…
## 
## $y_variable
## [1] "medv"
## 
## $outcome_type
## [1] "continuous"
## 
## $learner_weights
## cor_threshold_screened_glm_1 cor_threshold_screened_glm_2 
##                    0.0000000                    0.0000000 
##        cor_top_n_screened_rf        t_test_screened_earth 
##                    0.4219593                    0.5780407 
## 
## $holdout_predictions
## # A tibble: 506 × 6
##    .sl_fold cor_threshold_screene…¹ cor_threshold_screen…² cor_top_n_screened_rf
##       <int>                   <dbl>                  <dbl>                 <dbl>
##  1        1                    31.7                   32.1                  33.3
##  2        1                    30.7                   30.4                  34.5
##  3        1                    21.8                   23.1                  22.6
##  4        1                    24.3                   25.2                  21.1
##  5        1                    22.5                   22.0                  20.1
##  6        1                    22.0                   20.9                  19.4
##  7        1                    18.1                   18.8                  17.0
##  8        1                    16.5                   17.5                  16.0
##  9        1                    14.5                   15.4                  15.5
## 10        1                    28.7                   28.0                  30.5
## # ℹ 496 more rows
## # ℹ abbreviated names: ¹​cor_threshold_screened_glm_1,
## #   ²​cor_threshold_screened_glm_2
## # ℹ 2 more variables: t_test_screened_earth <dbl>, medv <dbl>
## 
## attr(,"class")
## [1] "list"                    "nadir_sl_verbose_output"
…
##     cor_threshold_screened_rf_2 cor_threshold_screened_glmnet_2 
##                      0.44293555                      0.00000000 
##    cor_threshold_screened_glm_3    cor_threshold_screened_hal_3 
##                      0.00000000                      0.02000205 
##  cor_threshold_screened_earth_3     cor_threshold_screened_rf_3 
##                      0.00000000                      0.00000000 
## cor_threshold_screened_glmnet_3          cor_top_n_screened_glm 
##                      0.00000000                      0.00000000 
##          cor_top_n_screened_hal        cor_top_n_screened_earth 
##                      0.10746165                      0.00000000 
##           cor_top_n_screened_rf       cor_top_n_screened_glmnet 
##                      0.23903768                      0.00000000 
## 
## $holdout_predictions
## # A tibble: 506 × 22
##    .sl_fold cor_threshold_screen…¹ cor_threshold_screen…² cor_threshold_screen…³
##       <int>                  <dbl>                  <dbl>                  <dbl>
##  1        1                   31.3                   29.1                   36.5
##  2        1                   30.8                   30.2                   32.3
##  3        1                   25.9                   21.6                   22.1
##  4        1                   23.6                   20.4                   20.3
##  5        1                   25.9                   20.5                   21.5
##  6        1                   17.5                   17.4                   17.7
##  7        1                   14.2                   19.5                   19.3
##  8        1                   16.3                   17.3                   15.1
##  9        1                   21.2                   20.2                   19.1
## 10        1                   22.9                   21.2                   20.7
## # ℹ 496 more rows
## # ℹ abbreviated names: ¹​cor_threshold_screened_glm_1,
## #   ²​cor_threshold_screened_hal_1, ³​cor_threshold_screened_earth_1
## # ℹ 18 more variables: cor_threshold_screened_rf_1 <dbl>,
## #   cor_threshold_screened_glmnet_1 <dbl>, cor_threshold_screened_glm_2 <dbl>,
## #   cor_threshold_screened_hal_2 <dbl>, cor_threshold_screened_earth_2 <dbl>,
## #   cor_threshold_screened_rf_2 <dbl>, cor_threshold_screened_glmnet_2 <dbl>, …
## 
## attr(,"class")
…
